name: Courses
description: |-

  Endpoints for browsing, searching and viewing course details.
endpoints:
  -
    custom: []
    httpMethods:
      - GET
    uri: courses
    metadata:
      custom: []
      groupName: Courses
      groupDescription: |-

        Endpoints for browsing, searching and viewing course details.
      subgroup: ''
      subgroupDescription: ''
      title: 'List courses'
      description: |-
        Return a paginated list of courses accessible to the current user.
        Students only see published courses; staff can see all.
      authenticated: true
      deprecated: false
    headers:
      Authorization: 'Bearer Bearer {token}'
      Content-Type: application/json
      Accept: application/json
    urlParameters: []
    cleanUrlParameters: []
    queryParameters:
      page:
        custom: []
        name: page
        description: 'The page number to return.'
        required: false
        example: 1
        type: integer
        enumValues: []
        exampleWasSpecified: true
        nullable: false
        deprecated: false
      per_page:
        custom: []
        name: per_page
        description: 'Number of items per page (1-100).'
        required: false
        example: 20
        type: integer
        enumValues: []
        exampleWasSpecified: true
        nullable: false
        deprecated: false
      sort:
        custom: []
        name: sort
        description: 'Field to sort by: title, created_at, estimated_time.'
        required: false
        example: '"created_at"'
        type: string
        enumValues: []
        exampleWasSpecified: true
        nullable: false
        deprecated: false
      order:
        custom: []
        name: order
        description: 'Sort direction: asc or desc.'
        required: false
        example: '"desc"'
        type: string
        enumValues: []
        exampleWasSpecified: true
        nullable: false
        deprecated: false
    cleanQueryParameters:
      page: 1
      per_page: 20
      sort: '"created_at"'
      order: '"desc"'
    bodyParameters:
      page:
        custom: []
        name: page
        description: 'Must be at least 1.'
        required: false
        example: 16
        type: integer
        enumValues: []
        exampleWasSpecified: false
        nullable: false
        deprecated: false
      per_page:
        custom: []
        name: per_page
        description: 'Must be at least 1. Must not be greater than 100.'
        required: false
        example: 22
        type: integer
        enumValues: []
        exampleWasSpecified: false
        nullable: false
        deprecated: false
      sort:
        custom: []
        name: sort
        description: ''
        required: false
        example: created_at
        type: string
        enumValues:
          - title
          - created_at
          - estimated_time
        exampleWasSpecified: false
        nullable: false
        deprecated: false
      order:
        custom: []
        name: order
        description: ''
        required: false
        example: desc
        type: string
        enumValues:
          - asc
          - desc
        exampleWasSpecified: false
        nullable: false
        deprecated: false
    cleanBodyParameters:
      page: 16
      per_page: 22
      sort: created_at
      order: desc
    fileParameters: []
    responses:
      -
        custom: []
        status: 200
        content: |-
          {
            "code": 200,
            "message": "Courses retrieved successfully",
            "data": [
              {
                "id": 1,
                "title": "Intro to Programming",
                "slug": "intro-to-programming",
                "description": "Learn the basics of programming.",
                "banner_url": "https://example.com/banners/intro-to-programming.png",
                "tags": ["programming", "beginner"],
                "estimated_time": 3600,
                "is_published": true,
                "created_at": "2024-01-01T12:00:00Z",
                "instructor": {
                  "id": 10,
                  "name": "Jane Doe",
                  "email": "jane@example.com"
                },
                "enrollment_status": "not_enrolled",
                "total_lessons": 10,
                "total_tasks": 5
              }
            ],
            "pagination": {
              "current_page": 1,
              "per_page": 20,
              "total": 35,
              "last_page": 2,
              "from": 1,
              "to": 20,
              "has_more_pages": true
            }
          }
        headers: []
        description: 'Courses retrieved'
      -
        custom: []
        status: 422
        content: |-
          {
            "code": 422,
            "message": "Validation failed",
            "data": {
              "errors": {
                "page": [
                  "The page must be at least 1."
                ]
              }
            },
            "pagination": {}
          }
        headers: []
        description: 'Validation failed'
    responseFields: []
    auth:
      - headers
      - Authorization
      - 'Bearer 6g43cv8PD1aE5beadkZfhV6'
    controller: null
    method: null
    route: null
  -
    custom: []
    httpMethods:
      - GET
    uri: courses/search
    metadata:
      custom: []
      groupName: Courses
      groupDescription: |-

        Endpoints for browsing, searching and viewing course details.
      subgroup: ''
      subgroupDescription: ''
      title: 'Search courses'
      description: |-
        Search courses by title, description, tags, instructor and date/time filters.
        Supports relevance-based sorting when a search query is provided.
      authenticated: true
      deprecated: false
    headers:
      Authorization: 'Bearer Bearer {token}'
      Content-Type: application/json
      Accept: application/json
    urlParameters: []
    cleanUrlParameters: []
    queryParameters:
      q:
        custom: []
        name: q
        description: 'Search term used to match title, description or tags.'
        required: false
        example: '"programming"'
        type: string
        enumValues: []
        exampleWasSpecified: true
        nullable: false
        deprecated: false
      instructor:
        custom: []
        name: instructor
        description: 'Filter by instructor name.'
        required: false
        example: '"Jane Doe"'
        type: string
        enumValues: []
        exampleWasSpecified: true
        nullable: false
        deprecated: false
      tags:
        custom: []
        name: tags
        description: 'Comma-separated list of tags to filter by.'
        required: false
        example: '"beginner,backend"'
        type: string
        enumValues: []
        exampleWasSpecified: true
        nullable: false
        deprecated: false
      start_date:
        custom: []
        name: start_date
        description: 'Filter courses created on or after this date (Y-m-d).'
        required: false
        example: '"2024-01-01"'
        type: string
        enumValues: []
        exampleWasSpecified: true
        nullable: false
        deprecated: false
      end_date:
        custom: []
        name: end_date
        description: 'Filter courses created on or before this date (Y-m-d).'
        required: false
        example: '"2024-12-31"'
        type: string
        enumValues: []
        exampleWasSpecified: true
        nullable: false
        deprecated: false
      min_time:
        custom: []
        name: min_time
        description: 'Minimum estimated time in minutes.'
        required: false
        example: 30
        type: integer
        enumValues: []
        exampleWasSpecified: true
        nullable: false
        deprecated: false
      max_time:
        custom: []
        name: max_time
        description: 'Maximum estimated time in minutes.'
        required: false
        example: 120
        type: integer
        enumValues: []
        exampleWasSpecified: true
        nullable: false
        deprecated: false
      page:
        custom: []
        name: page
        description: 'The page number to return.'
        required: false
        example: 1
        type: integer
        enumValues: []
        exampleWasSpecified: true
        nullable: false
        deprecated: false
      per_page:
        custom: []
        name: per_page
        description: 'Number of items per page (1-100).'
        required: false
        example: 20
        type: integer
        enumValues: []
        exampleWasSpecified: true
        nullable: false
        deprecated: false
      sort:
        custom: []
        name: sort
        description: 'Sort field: title, created_at, estimated_time, relevance.'
        required: false
        example: '"relevance"'
        type: string
        enumValues: []
        exampleWasSpecified: true
        nullable: false
        deprecated: false
      order:
        custom: []
        name: order
        description: 'Sort direction: asc or desc.'
        required: false
        example: '"desc"'
        type: string
        enumValues: []
        exampleWasSpecified: true
        nullable: false
        deprecated: false
    cleanQueryParameters:
      q: '"programming"'
      instructor: '"Jane Doe"'
      tags: '"beginner,backend"'
      start_date: '"2024-01-01"'
      end_date: '"2024-12-31"'
      min_time: 30
      max_time: 120
      page: 1
      per_page: 20
      sort: '"relevance"'
      order: '"desc"'
    bodyParameters:
      q:
        custom: []
        name: q
        description: 'Must not be greater than 255 characters.'
        required: false
        example: b
        type: string
        enumValues: []
        exampleWasSpecified: false
        nullable: false
        deprecated: false
      instructor:
        custom: []
        name: instructor
        description: 'Must not be greater than 255 characters.'
        required: false
        example: 'n'
        type: string
        enumValues: []
        exampleWasSpecified: false
        nullable: false
        deprecated: false
      tags:
        custom: []
        name: tags
        description: 'Must not be greater than 255 characters.'
        required: false
        example: g
        type: string
        enumValues: []
        exampleWasSpecified: false
        nullable: false
        deprecated: false
      start_date:
        custom: []
        name: start_date
        description: 'Must be a valid date in the format <code>Y-m-d</code>.'
        required: false
        example: '2025-12-12'
        type: string
        enumValues: []
        exampleWasSpecified: false
        nullable: false
        deprecated: false
      end_date:
        custom: []
        name: end_date
        description: 'Must be a valid date in the format <code>Y-m-d</code>. Must be a date after or equal to <code>start_date</code>.'
        required: false
        example: '2052-01-05'
        type: string
        enumValues: []
        exampleWasSpecified: false
        nullable: false
        deprecated: false
      min_time:
        custom: []
        name: min_time
        description: 'Must be at least 0.'
        required: false
        example: 39
        type: integer
        enumValues: []
        exampleWasSpecified: false
        nullable: false
        deprecated: false
      max_time:
        custom: []
        name: max_time
        description: 'Must be at least 0.'
        required: false
        example: 84
        type: integer
        enumValues: []
        exampleWasSpecified: false
        nullable: false
        deprecated: false
      page:
        custom: []
        name: page
        description: 'Must be at least 1.'
        required: false
        example: 66
        type: integer
        enumValues: []
        exampleWasSpecified: false
        nullable: false
        deprecated: false
      per_page:
        custom: []
        name: per_page
        description: 'Must be at least 1. Must not be greater than 100.'
        required: false
        example: 17
        type: integer
        enumValues: []
        exampleWasSpecified: false
        nullable: false
        deprecated: false
      sort:
        custom: []
        name: sort
        description: ''
        required: false
        example: estimated_time
        type: string
        enumValues:
          - title
          - created_at
          - estimated_time
          - relevance
        exampleWasSpecified: false
        nullable: false
        deprecated: false
      order:
        custom: []
        name: order
        description: ''
        required: false
        example: asc
        type: string
        enumValues:
          - asc
          - desc
        exampleWasSpecified: false
        nullable: false
        deprecated: false
    cleanBodyParameters:
      q: b
      instructor: 'n'
      tags: g
      start_date: '2025-12-12'
      end_date: '2052-01-05'
      min_time: 39
      max_time: 84
      page: 66
      per_page: 17
      sort: estimated_time
      order: asc
    fileParameters: []
    responses:
      -
        custom: []
        status: 200
        content: |-
          {
            "code": 200,
            "message": "Search completed successfully",
            "data": [
              {
                "id": 1,
                "title": "Intro to Programming",
                "slug": "intro-to-programming",
                "description": "Learn the basics of programming.",
                "banner_url": "https://example.com/banners/intro-to-programming.png",
                "tags": ["programming", "beginner"],
                "estimated_time": 3600,
                "is_published": true,
                "created_at": "2024-01-01T12:00:00Z",
                "instructor": {
                  "id": 10,
                  "name": "Jane Doe",
                  "email": "jane@example.com"
                },
                "enrollment_status": "not_enrolled",
                "total_lessons": 10,
                "total_tasks": 5,
                "relevance_score": 1
              }
            ],
            "pagination": {
              "current_page": 1,
              "per_page": 20,
              "total": 10,
              "last_page": 1,
              "from": 1,
              "to": 10,
              "has_more_pages": false
            }
          }
        headers: []
        description: 'Search completed'
      -
        custom: []
        status: 422
        content: |-
          {
            "code": 422,
            "message": "Validation failed",
            "data": {
              "errors": {
                "start_date": [
                  "The start date does not match the format Y-m-d."
                ]
              }
            },
            "pagination": {}
          }
        headers: []
        description: 'Validation failed'
    responseFields: []
    auth:
      - headers
      - Authorization
      - 'Bearer 6g43cv8PD1aE5beadkZfhV6'
    controller: null
    method: null
    route: null
  -
    custom: []
    httpMethods:
      - GET
    uri: 'courses/{courseId}'
    metadata:
      custom: []
      groupName: Courses
      groupDescription: |-

        Endpoints for browsing, searching and viewing course details.
      subgroup: ''
      subgroupDescription: ''
      title: 'Get course details'
      description: |-
        Retrieve full details for a single course, including lessons, sections, tasks and statistics.
        Students cannot access unpublished courses.
      authenticated: true
      deprecated: false
    headers:
      Authorization: 'Bearer Bearer {token}'
      Content-Type: application/json
      Accept: application/json
    urlParameters:
      courseId:
        custom: []
        name: courseId
        description: 'The ID of the course to retrieve.'
        required: true
        example: 1
        type: integer
        enumValues: []
        exampleWasSpecified: true
        nullable: false
        deprecated: false
    cleanUrlParameters:
      courseId: 1
    queryParameters: []
    cleanQueryParameters: []
    bodyParameters: []
    cleanBodyParameters: []
    fileParameters: []
    responses:
      -
        custom: []
        status: 200
        content: |-
          {
            "code": 200,
            "message": "Course details retrieved successfully",
            "data": {
              "id": 1,
              "title": "Intro to Programming",
              "slug": "intro-to-programming",
              "description": "Learn the basics of programming.",
              "banner_url": "https://example.com/banners/intro-to-programming.png",
              "tags": ["programming", "beginner"],
              "estimated_time": 3600,
              "is_published": true,
              "created_at": "2024-01-01T12:00:00Z",
              "updated_at": "2024-01-02T12:00:00Z",
              "instructor": {
                "id": 10,
                "name": "Jane Doe",
                "email": "jane@example.com"
              },
              "teachers": [],
              "enrollment_status": "not_enrolled",
              "enrollment_date": null,
              "progress_percentage": 0,
              "lessons": [],
              "lesson_sections": [],
              "tasks": [],
              "learning_paths": [],
              "statistics": {
                "total_lessons": 10,
                "completed_lessons": 0,
                "total_tasks": 5,
                "completed_tasks": 0,
                "total_enrolled_students": 0,
                "average_completion_rate": 0
              }
            },
            "pagination": {}
          }
        headers: []
        description: 'Course found'
      -
        custom: []
        status: 403
        content: |-
          {
            "code": 403,
            "message": "Access denied. This course is not published.",
            "data": [],
            "pagination": {}
          }
        headers: []
        description: 'Unpublished course for student'
      -
        custom: []
        status: 404
        content: |-
          {
            "code": 404,
            "message": "Course not found",
            "data": [],
            "pagination": {}
          }
        headers: []
        description: 'Course not found'
    responseFields: []
    auth:
      - headers
      - Authorization
      - 'Bearer 6g43cv8PD1aE5beadkZfhV6'
    controller: null
    method: null
    route: null
