## Autogenerated by Scribe. DO NOT MODIFY.

name: 'Course Management'
description: |-

  APIs for managing courses, including listing, searching, and retrieving detailed course information
endpoints:
  -
    custom: []
    httpMethods:
      - GET
    uri: api/courses
    metadata:
      custom: []
      groupName: 'Course Management'
      groupDescription: |-

        APIs for managing courses, including listing, searching, and retrieving detailed course information
      subgroup: ''
      subgroupDescription: ''
      title: 'Course Listing'
      description: |-
        Retrieve all available courses with pagination support. Returns basic course information
        including ID, title, instructor, and brief description. Students can only see published courses.
      authenticated: false
      deprecated: false
    headers:
      Content-Type: application/json
      Accept: application/json
    urlParameters: []
    cleanUrlParameters: []
    queryParameters:
      page:
        custom: []
        name: page
        description: 'The page number for pagination.'
        required: false
        example: 1
        type: integer
        enumValues: []
        exampleWasSpecified: true
        nullable: false
        deprecated: false
      per_page:
        custom: []
        name: per_page
        description: 'Number of courses per page (max 100, default 20).'
        required: false
        example: 20
        type: integer
        enumValues: []
        exampleWasSpecified: true
        nullable: false
        deprecated: false
      sort:
        custom: []
        name: sort
        description: 'Sort field (title, created_at, estimated_time).'
        required: false
        example: title
        type: string
        enumValues: []
        exampleWasSpecified: true
        nullable: false
        deprecated: false
      order:
        custom: []
        name: order
        description: 'Sort order (asc, desc).'
        required: false
        example: asc
        type: string
        enumValues: []
        exampleWasSpecified: true
        nullable: false
        deprecated: false
    cleanQueryParameters:
      page: 1
      per_page: 20
      sort: title
      order: asc
    bodyParameters:
      page:
        custom: []
        name: page
        description: 'Must be at least 1.'
        required: false
        example: 16
        type: integer
        enumValues: []
        exampleWasSpecified: false
        nullable: false
        deprecated: false
      per_page:
        custom: []
        name: per_page
        description: 'Must be at least 1. Must not be greater than 100.'
        required: false
        example: 22
        type: integer
        enumValues: []
        exampleWasSpecified: false
        nullable: false
        deprecated: false
      sort:
        custom: []
        name: sort
        description: ''
        required: false
        example: estimated_time
        type: string
        enumValues:
          - title
          - created_at
          - estimated_time
        exampleWasSpecified: false
        nullable: false
        deprecated: false
      order:
        custom: []
        name: order
        description: ''
        required: false
        example: desc
        type: string
        enumValues:
          - asc
          - desc
        exampleWasSpecified: false
        nullable: false
        deprecated: false
    cleanBodyParameters:
      page: 16
      per_page: 22
      sort: estimated_time
      order: desc
    fileParameters: []
    responses:
      -
        custom: []
        status: 200
        content: |-
          {
            "code": 200,
            "message": "Courses retrieved successfully",
            "data": [
              {
                "id": 1,
                "title": "Introduction to Programming",
                "slug": "intro-programming",
                "description": "Learn the basics of programming with hands-on exercises",
                "banner_url": "https://example.com/storage/banners/course1.jpg",
                "tags": "programming,basics,beginner",
                "estimated_time": 120,
                "is_published": true,
                "created_at": "2024-01-01T00:00:00.000000Z",
                "instructor": {
                  "id": 2,
                  "name": "Dr. Jane Smith",
                  "email": "jane.smith@example.com"
                },
                "enrollment_status": "not_enrolled",
                "total_lessons": 15,
                "total_tasks": 8
              }
            ],
            "pagination": {
              "current_page": 1,
              "per_page": 20,
              "total": 50,
              "last_page": 3,
              "from": 1,
              "to": 20,
              "has_more_pages": true
            }
          }
        headers: []
        description: 'Successful course listing'
      -
        custom: []
        status: 401
        content: |-
          {
            "code": 401,
            "message": "Unauthenticated",
            "data": [],
            "pagination": {}
          }
        headers: []
        description: Unauthenticated
    responseFields: []
    auth: []
    controller: null
    method: null
    route: null
  -
    custom: []
    httpMethods:
      - GET
    uri: api/courses/search
    metadata:
      custom: []
      groupName: 'Course Management'
      groupDescription: |-

        APIs for managing courses, including listing, searching, and retrieving detailed course information
      subgroup: ''
      subgroupDescription: ''
      title: 'Course Search'
      description: |-
        Search for courses using various filters including title, instructor name, department/subject,
        and date range. Supports full-text search capabilities where applicable.
      authenticated: false
      deprecated: false
    headers:
      Content-Type: application/json
      Accept: application/json
    urlParameters: []
    cleanUrlParameters: []
    queryParameters:
      q:
        custom: []
        name: q
        description: 'Search query for course title (partial match).'
        required: false
        example: programming
        type: string
        enumValues: []
        exampleWasSpecified: true
        nullable: false
        deprecated: false
      instructor:
        custom: []
        name: instructor
        description: 'Search by instructor name (partial match).'
        required: false
        example: Smith
        type: string
        enumValues: []
        exampleWasSpecified: true
        nullable: false
        deprecated: false
      tags:
        custom: []
        name: tags
        description: 'Search by tags/subject (partial match).'
        required: false
        example: programming
        type: string
        enumValues: []
        exampleWasSpecified: true
        nullable: false
        deprecated: false
      start_date:
        custom: []
        name: start_date
        description: 'Filter courses created after this date (Y-m-d format).'
        required: false
        example: '2024-01-01'
        type: string
        enumValues: []
        exampleWasSpecified: true
        nullable: false
        deprecated: false
      end_date:
        custom: []
        name: end_date
        description: 'Filter courses created before this date (Y-m-d format).'
        required: false
        example: '2024-12-31'
        type: string
        enumValues: []
        exampleWasSpecified: true
        nullable: false
        deprecated: false
      min_time:
        custom: []
        name: min_time
        description: 'Minimum estimated time in minutes.'
        required: false
        example: 60
        type: integer
        enumValues: []
        exampleWasSpecified: true
        nullable: false
        deprecated: false
      max_time:
        custom: []
        name: max_time
        description: 'Maximum estimated time in minutes.'
        required: false
        example: 300
        type: integer
        enumValues: []
        exampleWasSpecified: true
        nullable: false
        deprecated: false
      page:
        custom: []
        name: page
        description: 'The page number for pagination.'
        required: false
        example: 1
        type: integer
        enumValues: []
        exampleWasSpecified: true
        nullable: false
        deprecated: false
      per_page:
        custom: []
        name: per_page
        description: 'Number of courses per page (max 100, default 20).'
        required: false
        example: 20
        type: integer
        enumValues: []
        exampleWasSpecified: true
        nullable: false
        deprecated: false
      sort:
        custom: []
        name: sort
        description: 'Sort field (title, created_at, estimated_time, relevance).'
        required: false
        example: relevance
        type: string
        enumValues: []
        exampleWasSpecified: true
        nullable: false
        deprecated: false
      order:
        custom: []
        name: order
        description: 'Sort order (asc, desc).'
        required: false
        example: desc
        type: string
        enumValues: []
        exampleWasSpecified: true
        nullable: false
        deprecated: false
    cleanQueryParameters:
      q: programming
      instructor: Smith
      tags: programming
      start_date: '2024-01-01'
      end_date: '2024-12-31'
      min_time: 60
      max_time: 300
      page: 1
      per_page: 20
      sort: relevance
      order: desc
    bodyParameters:
      q:
        custom: []
        name: q
        description: 'Must not be greater than 255 characters.'
        required: false
        example: b
        type: string
        enumValues: []
        exampleWasSpecified: false
        nullable: false
        deprecated: false
      instructor:
        custom: []
        name: instructor
        description: 'Must not be greater than 255 characters.'
        required: false
        example: 'n'
        type: string
        enumValues: []
        exampleWasSpecified: false
        nullable: false
        deprecated: false
      tags:
        custom: []
        name: tags
        description: 'Must not be greater than 255 characters.'
        required: false
        example: g
        type: string
        enumValues: []
        exampleWasSpecified: false
        nullable: false
        deprecated: false
      start_date:
        custom: []
        name: start_date
        description: 'Must be a valid date in the format <code>Y-m-d</code>.'
        required: false
        example: '2025-11-04'
        type: string
        enumValues: []
        exampleWasSpecified: false
        nullable: false
        deprecated: false
      end_date:
        custom: []
        name: end_date
        description: 'Must be a valid date in the format <code>Y-m-d</code>. Must be a date after or equal to <code>start_date</code>.'
        required: false
        example: '2051-11-28'
        type: string
        enumValues: []
        exampleWasSpecified: false
        nullable: false
        deprecated: false
      min_time:
        custom: []
        name: min_time
        description: 'Must be at least 0.'
        required: false
        example: 39
        type: integer
        enumValues: []
        exampleWasSpecified: false
        nullable: false
        deprecated: false
      max_time:
        custom: []
        name: max_time
        description: 'Must be at least 0.'
        required: false
        example: 84
        type: integer
        enumValues: []
        exampleWasSpecified: false
        nullable: false
        deprecated: false
      page:
        custom: []
        name: page
        description: 'Must be at least 1.'
        required: false
        example: 66
        type: integer
        enumValues: []
        exampleWasSpecified: false
        nullable: false
        deprecated: false
      per_page:
        custom: []
        name: per_page
        description: 'Must be at least 1. Must not be greater than 100.'
        required: false
        example: 17
        type: integer
        enumValues: []
        exampleWasSpecified: false
        nullable: false
        deprecated: false
      sort:
        custom: []
        name: sort
        description: ''
        required: false
        example: estimated_time
        type: string
        enumValues:
          - title
          - created_at
          - estimated_time
          - relevance
        exampleWasSpecified: false
        nullable: false
        deprecated: false
      order:
        custom: []
        name: order
        description: ''
        required: false
        example: asc
        type: string
        enumValues:
          - asc
          - desc
        exampleWasSpecified: false
        nullable: false
        deprecated: false
    cleanBodyParameters:
      q: b
      instructor: 'n'
      tags: g
      start_date: '2025-11-04'
      end_date: '2051-11-28'
      min_time: 39
      max_time: 84
      page: 66
      per_page: 17
      sort: estimated_time
      order: asc
    fileParameters: []
    responses:
      -
        custom: []
        status: 200
        content: |-
          {
            "code": 200,
            "message": "Search completed successfully",
            "data": [
              {
                "id": 1,
                "title": "Advanced Programming Concepts",
                "slug": "advanced-programming",
                "description": "Deep dive into advanced programming techniques and patterns",
                "banner_url": "https://example.com/storage/banners/course1.jpg",
                "tags": "programming,advanced,patterns",
                "estimated_time": 180,
                "is_published": true,
                "created_at": "2024-01-15T00:00:00.000000Z",
                "instructor": {
                  "id": 2,
                  "name": "Dr. Jane Smith",
                  "email": "jane.smith@example.com"
                },
                "enrollment_status": "enrolled",
                "total_lessons": 20,
                "total_tasks": 12,
                "relevance_score": 0.95
              }
            ],
            "pagination": {
              "current_page": 1,
              "per_page": 20,
              "total": 5,
              "last_page": 1,
              "from": 1,
              "to": 5,
              "has_more_pages": false
            }
          }
        headers: []
        description: 'Successful search results'
    responseFields: []
    auth: []
    controller: null
    method: null
    route: null
  -
    custom: []
    httpMethods:
      - GET
    uri: 'api/courses/{courseId}'
    metadata:
      custom: []
      groupName: 'Course Management'
      groupDescription: |-

        APIs for managing courses, including listing, searching, and retrieving detailed course information
      subgroup: ''
      subgroupDescription: ''
      title: 'Course Details'
      description: |-
        Retrieve complete information for a specific course including full description,
        syllabus, schedule information, prerequisites, enrollment status, and associated materials.
      authenticated: false
      deprecated: false
    headers:
      Content-Type: application/json
      Accept: application/json
    urlParameters:
      courseId:
        custom: []
        name: courseId
        description: 'The ID of the course.'
        required: true
        example: 1
        type: integer
        enumValues: []
        exampleWasSpecified: true
        nullable: false
        deprecated: false
    cleanUrlParameters:
      courseId: 1
    queryParameters: []
    cleanQueryParameters: []
    bodyParameters: []
    cleanBodyParameters: []
    fileParameters: []
    responses:
      -
        custom: []
        status: 200
        content: |-
          {
            "code": 200,
            "message": "Course details retrieved successfully",
            "data": {
              "id": 1,
              "title": "Introduction to Programming",
              "slug": "intro-programming",
              "description": "Comprehensive introduction to programming concepts with hands-on exercises and real-world projects",
              "banner_url": "https://example.com/storage/banners/course1.jpg",
              "tags": "programming,basics,beginner",
              "estimated_time": 120,
              "is_published": true,
              "created_at": "2024-01-01T00:00:00.000000Z",
              "updated_at": "2024-01-15T00:00:00.000000Z",
              "instructor": {
                "id": 2,
                "name": "Dr. Jane Smith",
                "email": "jane.smith@example.com"
              },
              "teachers": [
                {
                  "id": 3,
                  "name": "Prof. John Doe",
                  "email": "john.doe@example.com",
                  "assigned_at": "2024-01-01T00:00:00.000000Z"
                }
              ],
              "enrollment_status": "enrolled",
              "enrollment_date": "2024-01-10T00:00:00.000000Z",
              "progress_percentage": 45.5,
              "lessons": [
                {
                  "id": 1,
                  "title": "Getting Started",
                  "slug": "getting-started",
                  "order_index": 1,
                  "estimated_time": 30,
                  "is_completed": true
                }
              ],
              "lesson_sections": [
                {
                  "id": 1,
                  "title": "Fundamentals",
                  "order_index": 1,
                  "lessons": [
                    {
                      "id": 1,
                      "title": "Getting Started",
                      "slug": "getting-started",
                      "order_index": 1,
                      "estimated_time": 30,
                      "is_completed": true
                    }
                  ]
                }
              ],
              "tasks": [
                {
                  "id": 1,
                  "title": "First Programming Exercise",
                  "description": "Complete your first programming challenge",
                  "type": "assignment",
                  "is_completed": false,
                  "due_date": "2024-02-01T23:59:59.000000Z"
                }
              ],
              "learning_paths": [
                {
                  "id": 1,
                  "title": "Full Stack Development",
                  "order_index": 1
                }
              ],
              "statistics": {
                "total_lessons": 15,
                "completed_lessons": 7,
                "total_tasks": 8,
                "completed_tasks": 3,
                "total_enrolled_students": 150,
                "average_completion_rate": 78.5
              }
            },
            "pagination": {}
          }
        headers: []
        description: 'Successful course details retrieval'
      -
        custom: []
        status: 403
        content: |-
          {
            "code": 403,
            "message": "Access denied. This course is not published.",
            "data": [],
            "pagination": {}
          }
        headers: []
        description: 'Access denied to unpublished course'
      -
        custom: []
        status: 404
        content: |-
          {
            "code": 404,
            "message": "Course not found",
            "data": [],
            "pagination": {}
          }
        headers: []
        description: 'Course not found'
    responseFields: []
    auth: []
    controller: null
    method: null
    route: null
